^E:\CPP\MYPROECTS\OOPZADACHICREATORQT\OOPZADACHIQTCREATOR\OOPZADACHIQTCREATOR\CONSTRUCTORSANDOVERLOADINGOPERATIONS\ARRAYANDCONSTATNSINCLASS\DICTIONARY_10\MAIN.CPP
/c /I.\GENERATEDFILES\DEBUG /I.\GENERATEDFILES /I. /IC:\QT\5.15.0\MSVC2019_64\INCLUDE /IC:\QT\5.15.0\MSVC2019_64\INCLUDE\QTGUI /IC:\QT\5.15.0\MSVC2019_64\INCLUDE\QTANGLE /IC:\QT\5.15.0\MSVC2019_64\INCLUDE\QTCORE /I/INCLUDE /I"C:\QT\5.15.0\MSVC2019_64\MKSPECS\WIN32-MSVC" /Zi /nologo /W3 /WX- /diagnostics:column /Od /D _CONSOLE /D UNICODE /D _UNICODE /D WIN32 /D _ENABLE_EXTENDED_ALIGNED_STORAGE /D WIN64 /D UNICODE /D _UNICODE /D WIN32 /D _ENABLE_EXTENDED_ALIGNED_STORAGE /D WIN64 /D QT_GUI_LIB /D QT_CORE_LIB /Gm- /EHsc /MDd /GS /fp:precise /Zc:wchar_t /Zc:forScope /Zc:inline /Fo"DEBUG\\" /Fd"DEBUG\VC142.PDB" /Gd /TP /wd4577 /wd4467 /FC -Zc:rvalueCast -Zc:inline -Zc:strictStrings -Zc:throwingNew -Zc:referenceBinding -Zc:__cplusplus -w34100 -w34189 -w44996 -w44456 -w44457 -w44458  E:\CPP\MYPROECTS\OOPZADACHICREATORQT\OOPZADACHIQTCREATOR\OOPZADACHIQTCREATOR\CONSTRUCTORSANDOVERLOADINGOPERATIONS\ARRAYANDCONSTATNSINCLASS\DICTIONARY_10\MAIN.CPP
^E:\CPP\MYPROECTS\OOPZADACHICREATORQT\OOPZADACHIQTCREATOR\OOPZADACHIQTCREATOR\CONSTRUCTORSANDOVERLOADINGOPERATIONS\ARRAYANDCONSTATNSINCLASS\DICTIONARY_10\DICTIONARY.CPP
/c /I.\GENERATEDFILES\DEBUG /I.\GENERATEDFILES /I. /IC:\QT\5.15.0\MSVC2019_64\INCLUDE /IC:\QT\5.15.0\MSVC2019_64\INCLUDE\QTGUI /IC:\QT\5.15.0\MSVC2019_64\INCLUDE\QTANGLE /IC:\QT\5.15.0\MSVC2019_64\INCLUDE\QTCORE /I/INCLUDE /I"C:\QT\5.15.0\MSVC2019_64\MKSPECS\WIN32-MSVC" /Zi /nologo /W3 /WX- /diagnostics:column /Od /D _CONSOLE /D UNICODE /D _UNICODE /D WIN32 /D _ENABLE_EXTENDED_ALIGNED_STORAGE /D WIN64 /D UNICODE /D _UNICODE /D WIN32 /D _ENABLE_EXTENDED_ALIGNED_STORAGE /D WIN64 /D QT_GUI_LIB /D QT_CORE_LIB /Gm- /EHsc /MDd /GS /fp:precise /Zc:wchar_t /Zc:forScope /Zc:inline /Fo"DEBUG\\" /Fd"DEBUG\VC142.PDB" /Gd /TP /wd4577 /wd4467 /FC -Zc:rvalueCast -Zc:inline -Zc:strictStrings -Zc:throwingNew -Zc:referenceBinding -Zc:__cplusplus -w34100 -w34189 -w44996 -w44456 -w44457 -w44458  E:\CPP\MYPROECTS\OOPZADACHICREATORQT\OOPZADACHIQTCREATOR\OOPZADACHIQTCREATOR\CONSTRUCTORSANDOVERLOADINGOPERATIONS\ARRAYANDCONSTATNSINCLASS\DICTIONARY_10\DICTIONARY.CPP
